{
  "Reservoir": [
    {
      "Thomson": [
        {
          "Name": "Thomson",
          "ThisDate": "14-Dec-2016",
          "LevelTodayGL": 742979,
          "LevelTodayPercent": 69.57,
          "ChangeYesterdayPercent": 0.01,
          "LevelYesterdayPercent": 69.56,
          "LevelYesterdayGL": 742907,
          "ChangeLastYearPercent": -0.53,
          "LevelLastYearPercent": 70.1,
          "LevelLastYearGL": 749059,
          "RainFallMM": 3.6,
          "URL": "/whatwedo/supply-water/reservoirs/Thomson-Reservoir/Pages/Thomson-reservoir.aspx"
        }
      ],
      "Cardinia": [
        {
          "Name": "Cardinia",
          "ThisDate": "14-Dec-2016",
          "LevelTodayGL": 183040,
          "LevelTodayPercent": 63.8,
          "ChangeYesterdayPercent": -0.14,
          "LevelYesterdayPercent": 63.94,
          "LevelYesterdayGL": 183463,
          "ChangeLastYearPercent": 2.4,
          "LevelLastYearPercent": 61.4,
          "LevelLastYearGL": 176114,
          "RainFallMM": 0,
          "URL": "/whatwedo/supply-water/reservoirs/Cardinia-Reservoir/Pages/Cardinia-reservoir.aspx"
        }
      ],
      "Upper Yarra": [
        {
          "Name": "Upper Yarra",
          "ThisDate": "14-Dec-2016",
          "LevelTodayGL": 137987,
          "LevelTodayPercent": 68.79,
          "ChangeYesterdayPercent": -0.35,
          "LevelYesterdayPercent": 69.14,
          "LevelYesterdayGL": 138684,
          "ChangeLastYearPercent": 8.99,
          "LevelLastYearPercent": 59.8,
          "LevelLastYearGL": 119964,
          "RainFallMM": 1.2,
          "URL": "/whatwedo/supply-water/reservoirs/Upper_Yarra-Reservoir/Pages/Upper_Yarra-reservoir.aspx"
        }
      ],
      "Sugarloaf": [
        {
          "Name": "Sugarloaf",
          "ThisDate": "14-Dec-2016",
          "LevelTodayGL": 93383,
          "LevelTodayPercent": 97.02,
          "ChangeYesterdayPercent": -0.09,
          "LevelYesterdayPercent": 97.11,
          "LevelYesterdayGL": 93470,
          "ChangeLastYearPercent": 6.82,
          "LevelLastYearPercent": 90.2,
          "LevelLastYearGL": 86814,
          "RainFallMM": 0,
          "URL": "/whatwedo/supply-water/reservoirs/Sugarloaf-Reservoir/Pages/Sugarloaf-reservoir.aspx"
        }
      ],
      "Silvan": [
        {
          "Name": "Silvan",
          "ThisDate": "14-Dec-2016",
          "LevelTodayGL": 35962,
          "LevelTodayPercent": 88.92,
          "ChangeYesterdayPercent": 1.53,
          "LevelYesterdayPercent": 87.39,
          "LevelYesterdayGL": 35343,
          "ChangeLastYearPercent": 3.92,
          "LevelLastYearPercent": 85,
          "LevelLastYearGL": 34384,
          "RainFallMM": 0,
          "URL": "/whatwedo/supply-water/reservoirs/Silvan-Reservoir/Pages/Silvan-reservoir.aspx"
        }
      ],
      "Tarago": [
        {
          "Name": "Tarago",
          "ThisDate": "14-Dec-2016",
          "LevelTodayGL": 37538,
          "LevelTodayPercent": 99.89,
          "ChangeYesterdayPercent": -0.11,
          "LevelYesterdayPercent": 100,
          "LevelYesterdayGL": 37584,
          "ChangeLastYearPercent": 0.59,
          "LevelLastYearPercent": 99.3,
          "LevelLastYearGL": 37334,
          "RainFallMM": 0,
          "URL": "/whatwedo/supply-water/reservoirs/Tarago-Reservoir/Pages/Tarago-reservoir.aspx"
        }
      ],
      "Yan Yean": [
        {
          "Name": "Yan Yean",
          "ThisDate": "14-Dec-2016",
          "LevelTodayGL": 27838,
          "LevelTodayPercent": 91.98,
          "ChangeYesterdayPercent": -0.34,
          "LevelYesterdayPercent": 92.32,
          "LevelYesterdayGL": 27942,
          "ChangeLastYearPercent": 6.98,
          "LevelLastYearPercent": 85,
          "LevelLastYearGL": 25713,
          "RainFallMM": 0,
          "URL": "/whatwedo/supply-water/reservoirs/Yan_Yean-Reservoir/Pages/Yan_Yean-reservoir.aspx"
        }
      ],
      "Greenvale": [
        {
          "Name": "Greenvale",
          "ThisDate": "14-Dec-2016",
          "LevelTodayGL": 25285,
          "LevelTodayPercent": 94.21,
          "ChangeYesterdayPercent": -0.17,
          "LevelYesterdayPercent": 94.38,
          "LevelYesterdayGL": 25331,
          "ChangeLastYearPercent": 3.11,
          "LevelLastYearPercent": 91.1,
          "LevelLastYearGL": 24451,
          "RainFallMM": 0,
          "URL": "/whatwedo/supply-water/reservoirs/Greenvale-Reservoir/Pages/Greenvale-reservoir.aspx"
        }
      ],
      "Maroondah": [
        {
          "Name": "Maroondah",
          "ThisDate": "14-Dec-2016",
          "LevelTodayGL": 21999,
          "LevelTodayPercent": 99.19,
          "ChangeYesterdayPercent": -0.27,
          "LevelYesterdayPercent": 99.46,
          "LevelYesterdayGL": 22059,
          "ChangeLastYearPercent": 14.59,
          "LevelLastYearPercent": 84.6,
          "LevelLastYearGL": 18754,
          "RainFallMM": 0,
          "URL": "/whatwedo/supply-water/reservoirs/Maroondah-Reservoir/Pages/Maroondah-reservoir.aspx"
        }
      ],
      "O'Shannassy": [
        {
          "Name": "O'Shannassy",
          "ThisDate": "14-Dec-2016",
          "LevelTodayGL": 2969,
          "LevelTodayPercent": 95.07,
          "ChangeYesterdayPercent": -0.9,
          "LevelYesterdayPercent": 95.97,
          "LevelYesterdayGL": 2997,
          "ChangeLastYearPercent": 17.67,
          "LevelLastYearPercent": 77.4,
          "LevelLastYearGL": 2417,
          "RainFallMM": 0.4,
          "URL": "/whatwedo/supply-water/reservoirs/O'Shannassy-Reservoir/Pages/O'Shannassy-reservoir.aspx"
        }
      ]
    }
  ]
}
