{
  "period": "2014-2016",
  "TotalStorage": [
    {
      "2014": [
        {
          "jan": 78.5,
          "feb": 76.1,
          "mar": 73.9,
          "apr": 72.8,
          "may": 71.4,
          "jun": 72.6,
          "jul": 77.4,
          "aug": 79.7,
          "sep": 80.4,
          "oct": 79.7,
          "nov": 78.5,
          "dec": 77.2
        }
      ],
      "2015": [
        {
          "jan": 75.3,
          "feb": 73.3,
          "mar": 71.1,
          "apr": 69.6,
          "may": 69,
          "jun": 68.3,
          "jul": 69.5,
          "aug": 72.7,
          "sep": 74.5,
          "oct": 73.2,
          "nov": 71.5,
          "dec": 68.8
        }
      ],
      "2016": [
        {
          "jan": 66.6,
          "feb": 64.3,
          "mar": 62,
          "apr": 59.9,
          "may": 58.75,
          "jun": 59.38,
          "jul": 62.99,
          "aug": 66.17,
          "sep": 68.24,
          "oct": 71.88,
          "nov": 72.62,
          "dec": 72.33
        }
      ]
    }
  ]
}
